{
    "title": "Testing",
    "copy": "this is some dummy text from a json file.",
    "cards": [
        {
            "icon": ["fas", "mobile-alt"],
            "title": "Mobile Repair",
            "copy": "When it comes to mobile phones we can't promise our service on them all, but when you get a hold of us and talk us through what phone you have and model we will have a much better understanding of how much labor is involved and the cost. so please give us a call or drop us an email.",
            "images": {
                "desktop": "http://img.richardgaskin.co.uk/Lychee/uploads/big/45b44ac6cd1af176580c992a957b5b67.png",
                "mobile": "http://img.richardgaskin.co.uk/Lychee/uploads/big/45b44ac6cd1af176580c992a957b5b67.png"
            },
            "btn": {
                "url": "#",
                "cta": "More Info"
            }
        },
        {
            "icon": ["fas", "laptop"],
            "title": "Laptop Repair",
            "copy": "Laptops of all kinds, from 10 years old to the newest stuff. we can take a look. a good indicator that it can be fixed on the cheap is if it has removable panels on the bottom. the newer laptops might not but that doesn't mean it will be expensive. like with phones it's best to give us a call or drop an email so we can have a chat about this in more detail.",
            "images": {
                "desktop": "http://img.richardgaskin.co.uk/Lychee/uploads/big/82eff8fcbb9a13374dc9694807a31ff0.png",
                "mobile": "http://img.richardgaskin.co.uk/Lychee/uploads/big/82eff8fcbb9a13374dc9694807a31ff0.png"
            },
            "btn": {
                "url": "#",
                "cta": "More Info"
            }
        },
        {
            "icon": ["fas", "desktop"],
            "title": "Card Header 3",
            "copy": "<p>We offer free qiuick advice on how to fix a problem you're having with your desktop pc. wheather it's just a office pc or a fully loaded gaming pc we have you covered. if we can't help you over the phone then, we will take a look in person. Desktop is usually, easy to fix, but then again, that all depends what's wrong with it.</p><p>When it comes to building you a desktop pc this is a service intended for people trying to get into gaming on a pc but not having the know how or just not having time. We can talk you through all the diffrent options that you have interms of components you need to buy, we will talk about what kind of games you intend to play and how long you want the pc to keep up to date with the games of the future.</p><p>all of this advice is free, the only thing you pay for is if we offer you a service.</p>",
            "images": {
                "desktop": "http://img.richardgaskin.co.uk/Lychee/uploads/big/8993ce44cf26086c25ccf9e72282abe4.png",
                "mobile": "http://img.richardgaskin.co.uk/Lychee/uploads/big/8993ce44cf26086c25ccf9e72282abe4.png"
            },
            "btn": {
                "url": "#",
                "cta": "More Info"
            }
        }
    ]
}